{
  "subscribeTopics" : [ ],
  "publishTopics" : [ {
    "name" : "crossdock/data/78-44-6f-63-6b-2d-30-32"
  }, {
    "name" : "crossdock/alert/78-44-6f-63-6b-2d-30-32"
  } ],
  "clipboardMessages" : [ {
    "name" : "crossdock-data",
    "topic" : {
      "name" : "crossdock/data/78-44-6f-63-6b-2d-30-32"
    },
    "payload" : "{ \"_dt\": 1632217021826, \"temperature\": 27.2, \"humidity\": 43, \"dewpoint\": 37, \"battery\": 51 }",
    "retained" : false,
    "qos" : 0
  }, {
    "name" : "crossdock-alert-on",
    "topic" : {
      "name" : "crossdock/alert/78-44-6f-63-6b-2d-30-32"
    },
    "payload" : "{ \"_dt\": 1632232103844, \"smoke\": true }",
    "retained" : false,
    "qos" : 0
  }, {
    "name" : "crossdock-alert-off",
    "topic" : {
      "name" : "crossdock/alert/78-44-6f-63-6b-2d-30-32"
    },
    "payload" : "{ \"_dt\": 1632232103844, \"smoke\": false}",
    "retained" : false,
    "qos" : 0
  } ]
}